<?xml version="1.0" encoding="UTF-8" standalone="no"?>
<!-- Created with Inkscape (http://www.inkscape.org/) -->

<svg
   xmlns:dc="http://purl.org/dc/elements/1.1/"
   xmlns:cc="http://creativecommons.org/ns#"
   xmlns:rdf="http://www.w3.org/1999/02/22-rdf-syntax-ns#"
   xmlns:svg="http://www.w3.org/2000/svg"
   xmlns="http://www.w3.org/2000/svg"
   xmlns:xlink="http://www.w3.org/1999/xlink"
   xmlns:sodipodi="http://sodipodi.sourceforge.net/DTD/sodipodi-0.dtd"
   xmlns:inkscape="http://www.inkscape.org/namespaces/inkscape"
   width="85.714279"
   height="85.714302"
   id="svg2"
   version="1.1"
   inkscape:version="0.48.3.1 r9886"
   sodipodi:docname="Logo.svg">
  <defs
     id="defs4">
    <linearGradient
       id="linearGradient3948">
      <stop
         id="stop3950"
         offset="0"
         style="stop-color:#0066ff;stop-opacity:1;" />
      <stop
         style="stop-color:#0066ff;stop-opacity:0;"
         offset="0.38461551"
         id="stop3952" />
      <stop
         style="stop-color:#0066ff;stop-opacity:1;"
         offset="0.53846163"
         id="stop3954" />
      <stop
         style="stop-color:#0066ff;stop-opacity:0;"
         offset="0.69230783"
         id="stop3956" />
      <stop
         id="stop3962"
         offset="0.84615397"
         style="stop-color:#0066ff;stop-opacity:1;" />
      <stop
         id="stop3958"
         offset="1"
         style="stop-color:#0066ff;stop-opacity:0;" />
    </linearGradient>
    <linearGradient
       id="linearGradient3924">
      <stop
         style="stop-color:#ff0000;stop-opacity:1"
         offset="0"
         id="stop3926" />
      <stop
         id="stop3936"
         offset="0.24193609"
         style="stop-color:#ff0000;stop-opacity:0;" />
      <stop
         id="stop3934"
         offset="0.36290383"
         style="stop-color:#ff0000;stop-opacity:1;" />
      <stop
         id="stop3932"
         offset="0.84677482"
         style="stop-color:#ff0000;stop-opacity:0;" />
      <stop
         style="stop-color:#ff0000;stop-opacity:1;"
         offset="1"
         id="stop3928" />
    </linearGradient>
    <radialGradient
       inkscape:collect="always"
       xlink:href="#linearGradient3924"
       id="radialGradient3930"
       cx="245.00002"
       cy="452.36221"
       fx="245.00002"
       fy="452.36221"
       r="21.333332"
       gradientTransform="matrix(1,0,0,1.9375,0,-424.08956)"
       gradientUnits="userSpaceOnUse" />
    <radialGradient
       inkscape:collect="always"
       xlink:href="#linearGradient3948"
       id="radialGradient3946"
       cx="-39.14286"
       cy="60.857147"
       fx="-39.14286"
       fy="60.857147"
       r="32.5"
       gradientUnits="userSpaceOnUse"
       gradientTransform="matrix(1.3186812,1.628063e-7,-1.6280635e-7,1.3186816,12.474104,-19.394046)" />
  </defs>
  <sodipodi:namedview
     id="base"
     pagecolor="#ffffff"
     bordercolor="#666666"
     borderopacity="1.0"
     inkscape:pageopacity="0.0"
     inkscape:pageshadow="2"
     inkscape:zoom="2.8"
     inkscape:cx="140.00948"
     inkscape:cy="29.90927"
     inkscape:document-units="px"
     inkscape:current-layer="g4185-2"
     showgrid="true"
     inkscape:snap-center="true"
     inkscape:snap-grids="false"
     inkscape:window-width="1024"
     inkscape:window-height="543"
     inkscape:window-x="0"
     inkscape:window-y="31"
     inkscape:window-maximized="1"
     inkscape:object-nodes="false"
     fit-margin-top="0"
     fit-margin-left="0"
     fit-margin-right="0"
     fit-margin-bottom="0"
     inkscape:snap-midpoints="false"
     inkscape:object-paths="true"
     inkscape:snap-intersection-paths="true"
     inkscape:snap-object-midpoints="false">
    <inkscape:grid
       type="xygrid"
       id="grid2985"
       empspacing="5"
       visible="true"
       enabled="true"
       snapvisiblegridlinesonly="true"
       originx="-322.5px"
       originy="-545.35714px" />
  </sodipodi:namedview>
  <metadata
     id="metadata7">
    <rdf:RDF>
      <cc:Work
         rdf:about="">
        <dc:format>image/svg+xml</dc:format>
        <dc:type
           rdf:resource="http://purl.org/dc/dcmitype/StillImage" />
        <dc:title />
      </cc:Work>
    </rdf:RDF>
  </metadata>
  <g
     inkscape:label="Calque 1"
     inkscape:groupmode="layer"
     id="layer1"
     transform="translate(-322.5,-421.29075)">
    <g
       transform="translate(119.99999,-1.7198335e-5)"
       id="g4185-2">
      <path
         sodipodi:type="arc"
         style="fill:url(#radialGradient3946);fill-opacity:1;stroke:none"
         id="path3938"
         sodipodi:cx="-39.14286"
         sodipodi:cy="60.857147"
         sodipodi:rx="42.85714"
         sodipodi:ry="42.857151"
         d="m 3.7142792,60.857147 c 0,23.669351 -19.1877952,42.857153 -42.8571392,42.857153 C -62.812205,103.7143 -82,84.526498 -82,60.857147 c 0,-23.669351 19.187795,-42.857151 42.85714,-42.857151 23.669344,0 42.8571392,19.1878 42.8571392,42.857151 z"
         transform="translate(284.50001,403.29077)" />
      <path
         inkscape:connector-curvature="0"
         id="path2987-1-3"
         d="m 240.35715,449.14792 0,30 15,-15 z"
         style="fill:#00ff00;stroke:#000000;stroke-width:0.5;stroke-linecap:butt;stroke-linejoin:miter;stroke-opacity:1"
         inkscape:transform-center-x="-2.5" />
    </g>
  </g>
</svg>
